^C:\USERS\YIIN\DOCUMENTS\YIIN KAMPUTIS\CODE\C++\SAMPGDK\IAC\DEBUG\AMXPLUGIN.OBJ|C:\USERS\YIIN\DOCUMENTS\YIIN KAMPUTIS\CODE\C++\SAMPGDK\IAC\DEBUG\CONTAINER.OBJ|C:\USERS\YIIN\DOCUMENTS\YIIN KAMPUTIS\CODE\C++\SAMPGDK\IAC\DEBUG\IAC.OBJ|C:\USERS\YIIN\DOCUMENTS\YIIN KAMPUTIS\CODE\C++\SAMPGDK\IAC\DEBUG\ITEM.OBJ|C:\USERS\YIIN\DOCUMENTS\YIIN KAMPUTIS\CODE\C++\SAMPGDK\IAC\DEBUG\SAMPGDK.OBJ
C:\WINDOWS\GLOBALIZATION\SORTING\SORTDEFAULT.NLS
C:\USERS\YIIN\DOCUMENTS\YIIN KAMPUTIS\CODE\C++\SAMPGDK\IAC\LIB\BOOST\LIBBOOST_SERIALIZATION-VC120-MT-GD-1_58.LIB
C:\PROGRAM FILES (X86)\WINDOWS KITS\8.1\LIB\WINV6.3\UM\X86\KERNEL32.LIB
C:\PROGRAM FILES (X86)\WINDOWS KITS\8.1\LIB\WINV6.3\UM\X86\USER32.LIB
C:\PROGRAM FILES (X86)\WINDOWS KITS\8.1\LIB\WINV6.3\UM\X86\GDI32.LIB
C:\PROGRAM FILES (X86)\WINDOWS KITS\8.1\LIB\WINV6.3\UM\X86\WINSPOOL.LIB
C:\PROGRAM FILES (X86)\WINDOWS KITS\8.1\LIB\WINV6.3\UM\X86\COMDLG32.LIB
C:\PROGRAM FILES (X86)\WINDOWS KITS\8.1\LIB\WINV6.3\UM\X86\ADVAPI32.LIB
C:\PROGRAM FILES (X86)\WINDOWS KITS\8.1\LIB\WINV6.3\UM\X86\SHELL32.LIB
C:\PROGRAM FILES (X86)\WINDOWS KITS\8.1\LIB\WINV6.3\UM\X86\OLE32.LIB
C:\PROGRAM FILES (X86)\WINDOWS KITS\8.1\LIB\WINV6.3\UM\X86\OLEAUT32.LIB
C:\PROGRAM FILES (X86)\WINDOWS KITS\8.1\LIB\WINV6.3\UM\X86\UUID.LIB
C:\PROGRAM FILES (X86)\WINDOWS KITS\8.1\LIB\WINV6.3\UM\X86\ODBC32.LIB
C:\PROGRAM FILES (X86)\WINDOWS KITS\8.1\LIB\WINV6.3\UM\X86\ODBCCP32.LIB
C:\USERS\YIIN\DOCUMENTS\YIIN KAMPUTIS\CODE\C++\SAMPGDK\IAC\DEBUG\SAMPGDK.OBJ
C:\USERS\YIIN\DOCUMENTS\YIIN KAMPUTIS\CODE\C++\SAMPGDK\IAC\DEBUG\AMXPLUGIN.OBJ
C:\USERS\YIIN\DOCUMENTS\YIIN KAMPUTIS\CODE\C++\SAMPGDK\IAC\DEBUG\CONTAINER.OBJ
C:\USERS\YIIN\DOCUMENTS\YIIN KAMPUTIS\CODE\C++\SAMPGDK\IAC\DEBUG\IAC.OBJ
C:\USERS\YIIN\DOCUMENTS\YIIN KAMPUTIS\CODE\C++\SAMPGDK\IAC\DEBUG\ITEM.OBJ
C:\PROGRAM FILES (X86)\MICROSOFT VISUAL STUDIO 12.0\VC\LIB\MSVCRTD.LIB
C:\PROGRAM FILES (X86)\MICROSOFT VISUAL STUDIO 12.0\VC\LIB\OLDNAMES.LIB
C:\PROGRAM FILES (X86)\MICROSOFT VISUAL STUDIO 12.0\VC\LIB\MSVCPRTD.LIB
C:\USERS\YIIN\DOCUMENTS\YIIN KAMPUTIS\CODE\C++\SAMPGDK\IAC\IAC.DEF
C:\WINDOWS\SYSTEM32\RSAENH.DLL
C:\WINDOWS\SYSTEM32\TZRES.DLL
C:\PROGRAM FILES (X86)\MICROSOFT VISUAL STUDIO 12.0\VC\BIN\1033\LINKUI.DLL
C:\PROGRAM FILES (X86)\WINDOWS KITS\8.1\BIN\X86\RC.EXE
C:\PROGRAM FILES (X86)\MICROSOFT VISUAL STUDIO 12.0\VC\BIN\CVTRES.EXE
