^C:\USERS\YIIN\DOCUMENTS\YIIN KAMPUTIS\CODE\C++\SAMPGDK\IAC\RELEASE\AMXPLUGIN.OBJ|C:\USERS\YIIN\DOCUMENTS\YIIN KAMPUTIS\CODE\C++\SAMPGDK\IAC\RELEASE\CONTAINER.OBJ|C:\USERS\YIIN\DOCUMENTS\YIIN KAMPUTIS\CODE\C++\SAMPGDK\IAC\RELEASE\IAC.OBJ|C:\USERS\YIIN\DOCUMENTS\YIIN KAMPUTIS\CODE\C++\SAMPGDK\IAC\RELEASE\ITEM.OBJ|C:\USERS\YIIN\DOCUMENTS\YIIN KAMPUTIS\CODE\C++\SAMPGDK\IAC\RELEASE\SAMPGDK.OBJ
C:\USERS\YIIN\DOCUMENTS\YIIN KAMPUTIS\CODE\C++\SAMPGDK\IAC\RELEASE\IAC.DLL
C:\USERS\YIIN\DOCUMENTS\YIIN KAMPUTIS\CODE\C++\SAMPGDK\IAC\RELEASE\IAC.PDB
